{
    "list":[
        {
            "firstName":"Lucas",
            "lastName":"Franco",
            "jobTitle":"Software enginner",
            "age":30,
            "dateJoined":1519129853500,
            "description":"Vestibulum tellus metus, feugiat dapibus euismod at, convallis non tortor. Suspendisse id massa tincidunt, hendrerit nisl id, iaculis sapien."
        },
        {
            "firstName":"Marin",
            "lastName":"Cosmni",
            "jobTitle":"Enginner",
            "age":43,
            "dateJoined":1019129853500,
            "description":"Vestibulum tellus metus, feugiat dapibus euismod at, convallis non tortor. Suspendisse id massa tincidunt, hendrerit nisl id, iaculis sapien."
        },
        {
            "firstName":"John",
            "lastName":"Cracker",
            "jobTitle":"Arhitect",
            "age":45,
            "dateJoined":1119129853500,
            "description":"Vestibulum tellus metus, feugiat dapibus euismod at, convallis non tortor. Suspendisse id massa tincidunt, hendrerit nisl id, iaculis sapien."
        },
        {
            "firstName":"Mark",
            "lastName":"Devon",
            "jobTitle":"Construction enginner",
            "age":33,
            "dateJoined":1219129853500,
            "description":"Vestibulum tellus metus, feugiat dapibus euismod at, convallis non tortor. Suspendisse id massa tincidunt, hendrerit nisl id, iaculis sapien."
        },
        {
            "firstName":"Olivia",
            "lastName":"Valer",
            "jobTitle":"MD",
            "age":39,
            "dateJoined":1619129853500,
            "description":"Vestibulum tellus metus, feugiat dapibus euismod at, convallis non tortor. Suspendisse id massa tincidunt, hendrerit nisl id, iaculis sapien."
        }
    ]
}